{
    "id":"TCDIM002",
    "description":"Automated added configuration",
    "inputs":{
        "port1":"DIMTA001",
        "port2":null,
        "port3":"DIMBS001",
        "port4":null,
        "port5":null,
        "port6":null
    },
    "outputs":{
        "port1":null,
        "port2":null,
        "port3":null,
        "port4":null
    }
}